…
# Ver si La Rioja tiene también código 17 en otros años
df_final %>%
  filter(!is.na(ccaa_cnh) & 
         grepl("rioja", ccaa_cnh, ignore.case=TRUE)) %>%
  group_by(anyo, ccaa_codigo, ccaa_cnh) %>%
  summarise(n=n(), .groups="drop") %>%
  print(n=20)
Con esto veremos si el código 21 es solo para años concretos (error de codificación) o si La Rioja siempre va mezclada con Ceuta y Melilla. En el primer caso podemos corregirlo; en el segundo es una limitación del SIAE para esas tres regiones pequeñas.

# A tibble: 45 × 5
    anyo ccaa_codigo ccaa_cnh ccaa                       n
   <dbl>       <dbl> <chr>    <chr>                  <int>
 1  2010          21 Ceuta    LA RIOJA-CEUTA-MELILLA     1
 2  2010          21 La Rioja LA RIOJA-CEUTA-MELILLA     6
 3  2010          21 Melilla  LA RIOJA-CEUTA-MELILLA     1
 4  2011          21 Ceuta    LA RIOJA-CEUTA-MELILLA     1
 5  2011          21 La Rioja LA RIOJA-CEUTA-MELILLA     6
 6  2011          21 Melilla  LA RIOJA-CEUTA-MELILLA     1
 7  2012          21 Ceuta    LA RIOJA-CEUTA-MELILLA     1
 8  2012          21 La Rioja LA RIOJA-CEUTA-MELILLA     6
 9  2012          21 Melilla  LA RIOJA-CEUTA-MELILLA     1
10  2013          21 Ceuta    LA RIOJA-CEUTA-MELILLA     1
11  2013          21 La Rioja LA RIOJA-CEUTA-MELILLA     7
12  2013          21 Melilla  LA RIOJA-CEUTA-MELILLA     1
13  2014          21 Ceuta    LA RIOJA-CEUTA-MELILLA     1
14  2014          21 La Rioja LA RIOJA-CEUTA-MELILLA     7
15  2014          21 Melilla  LA RIOJA-CEUTA-MELILLA     1
16  2015          21 Ceuta    LA RIOJA-CEUTA-MELILLA     1
17  2015          21 La Rioja LA RIOJA-CEUTA-MELILLA     7
18  2015          21 Melilla  LA RIOJA-CEUTA-MELILLA     1
19  2016          21 Ceuta    LA RIOJA-CEUTA-MELILLA     1
20  2016          21 La Rioja LA RIOJA-CEUTA-MELILLA     7
21  2016          21 Melilla  LA RIOJA-CEUTA-MELILLA     1
22  2017          21 Ceuta    LA RIOJA-CEUTA-MELILLA     1
23  2017          21 La Rioja LA RIOJA-CEUTA-MELILLA     7
24  2017          21 Melilla  LA RIOJA-CEUTA-MELILLA     1
25  2018          21 Ceuta    LA RIOJA-CEUTA-MELILLA     1
26  2018          21 La Rioja LA RIOJA-CEUTA-MELILLA     7
27  2018          21 Melilla  LA RIOJA-CEUTA-MELILLA     1
28  2018          21 NA       LA RIOJA-CEUTA-MELILLA     1
29  2019          21 Ceuta    LA RIOJA-CEUTA-MELILLA     1
30  2019          21 La Rioja LA RIOJA-CEUTA-MELILLA     7
# ℹ 15 more rows
# ℹ Use print(n = ...) to see more rows
…
